{
  "project_info": {
    "project_number": "318488741981",
    "firebase_url": "https://event-management-66d93.firebaseio.com",
    "project_id": "event-management-66d93",
    "storage_bucket": "event-management-66d93.appspot.com"
  },
  "client": [
    {
      "client_info": {
        "mobilesdk_app_id": "1:318488741981:android:fe4980fa938e8972",
        "android_client_info": {
          "package_name": "com.eventsmanagement"
        }
      },
      "oauth_client": [
        {
          "client_id": "318488741981-umpoof3crgbks29lnpfm2c082u2ip48k.apps.googleusercontent.com",
          "client_type": 3
        }
      ],
      "api_key": [
        {
          "current_key": "AIzaSyC4z29C-hQBaj3IPJyKMDfQe0F07xS27M0"
        }
      ],
      "services": {
        "analytics_service": {
          "status": 1
        },
        "appinvite_service": {
          "status": 1,
          "other_platform_oauth_client": []
        },
        "ads_service": {
          "status": 2
        }
      }
    }
  ],
  "configuration_version": "1"
}